{
    "modules": [
        {
            "config": {
                "position": [
                    97,
                    116
                ]
            },
            "name": "New Model Object",
            "value": {
                "actionGroup": {
                    "_default0_list": false,
                    "_default1_show": false,
                    "_default2_new_create": false,
                    "_default3_edit_update": false,
                    "_default4_delete": false,
                    "customActions": []
                },
                "name": "Element",
                "objectsettings": {
                    "addDeletedField": true,
                    "addHiddenField": true,
                    "addStarttimeEndtimeFields": true,
                    "aggregateRoot": true,
                    "categorizable": false,
                    "description": "",
                    "mapToTable": "",
                    "parentClass": "",
                    "sorting": false,
                    "type": "Entity",
                    "uid": "474758145386"
                },
                "propertyGroup": {
                    "properties": [
                        {
                            "allowedFileTypes": "",
                            "maxItems": "1",
                            "propertyDescription": "",
                            "propertyIsExcludeField": false,
                            "propertyIsL10nModeExclude": false,
                            "propertyIsRequired": true,
                            "propertyName": "navTitle",
                            "propertyType": "String",
                            "uid": "615743151919"
                        },
                        {
                            "allowedFileTypes": "",
                            "maxItems": "1",
                            "propertyDescription": "",
                            "propertyIsExcludeField": false,
                            "propertyIsL10nModeExclude": false,
                            "propertyIsRequired": false,
                            "propertyName": "navIcon",
                            "propertyType": "String",
                            "uid": "318721303659"
                        },
                        {
                            "allowedFileTypes": "",
                            "maxItems": "1",
                            "propertyDescription": "",
                            "propertyIsExcludeField": false,
                            "propertyIsL10nModeExclude": false,
                            "propertyIsRequired": false,
                            "propertyName": "header",
                            "propertyType": "String",
                            "uid": "811159810653"
                        },
                        {
                            "allowedFileTypes": "",
                            "maxItems": "1",
                            "propertyDescription": "",
                            "propertyIsExcludeField": false,
                            "propertyIsL10nModeExclude": false,
                            "propertyIsRequired": false,
                            "propertyName": "subheader",
                            "propertyType": "String",
                            "uid": "112209454915"
                        },
                        {
                            "allowedFileTypes": "",
                            "maxItems": "1",
                            "propertyDescription": "",
                            "propertyIsExcludeField": false,
                            "propertyIsL10nModeExclude": false,
                            "propertyIsRequired": false,
                            "propertyName": "text",
                            "propertyType": "RichText",
                            "uid": "85096585293"
                        },
                        {
                            "allowedFileTypes": "",
                            "maxItems": "1",
                            "propertyDescription": "",
                            "propertyIsExcludeField": false,
                            "propertyIsL10nModeExclude": false,
                            "propertyIsRequired": false,
                            "propertyName": "image",
                            "propertyType": "Image",
                            "uid": "667842920879"
                        },
                        {
                            "allowedFileTypes": "",
                            "maxItems": "1",
                            "propertyDescription": "",
                            "propertyIsExcludeField": false,
                            "propertyIsL10nModeExclude": false,
                            "propertyIsRequired": false,
                            "propertyName": "icon",
                            "propertyType": "String",
                            "uid": "1380958363828"
                        },
                        {
                            "allowedFileTypes": "",
                            "maxItems": "1",
                            "propertyDescription": "",
                            "propertyIsExcludeField": false,
                            "propertyIsL10nModeExclude": false,
                            "propertyIsRequired": false,
                            "propertyName": "link",
                            "propertyType": "Text",
                            "uid": "1096956872510"
                        },
                        {
                            "allowedFileTypes": "",
                            "maxItems": "1",
                            "propertyDescription": "",
                            "propertyIsExcludeField": false,
                            "propertyIsL10nModeExclude": false,
                            "propertyIsRequired": false,
                            "propertyName": "variant",
                            "propertyType": "String",
                            "uid": "985864976017"
                        },
                        {
                            "allowedFileTypes": "",
                            "maxItems": "1",
                            "propertyDescription": "",
                            "propertyIsExcludeField": false,
                            "propertyIsL10nModeExclude": false,
                            "propertyIsRequired": false,
                            "propertyName": "date",
                            "propertyType": "DateTime",
                            "uid": "41409869543"
                        },
                        {
                            "allowedFileTypes": "",
                            "maxItems": "1",
                            "propertyDescription": "",
                            "propertyIsExcludeField": false,
                            "propertyIsL10nModeExclude": false,
                            "propertyIsRequired": false,
                            "propertyName": "date1",
                            "propertyType": "DateTime",
                            "uid": "322169965880"
                        }
                    ]
                },
                "relationGroup": {
                    "relations": []
                }
            }
        }
    ],
    "properties": {
        "backendModules": [],
        "description": "",
        "emConf": {
            "category": "plugin",
            "custom_category": "",
            "dependsOn": "typo3 => 9.5.0-9.5.99\n",
            "disableLocalization": false,
            "disableVersioning": false,
            "skipGenerateDocumentationTemplate": true,
            "sourceLanguage": "en",
            "state": "stable",
            "targetVersion": "9.5.0-9.5.99",
            "version": "9.5.0"
        },
        "extensionKey": "kitt3n_loop",
        "name": "kitt3n | Loop",
        "originalExtensionKey": "kitt3n_loop",
        "originalVendorName": "KITT3N",
        "persons": [
            {
                "company": "",
                "email": "o.merz@kitt3n.de",
                "name": "Oliver Merz",
                "role": "Developer"
            },
            {
                "company": "",
                "email": "g.kathan@kitt3n.de",
                "name": "Georg Kathan",
                "role": "Developer"
            },
            {
                "company": "",
                "email": "d.hilser@kitt3n.de",
                "name": "Dominik Hilser",
                "role": "Developer"
            },
            {
                "company": "ZWEI14 GmbH",
                "email": "hallo@ZWEI14.de",
                "name": "ZWEI14 GmbH",
                "role": "Product Manager"
            }
        ],
        "plugins": [],
        "vendorName": "KITT3N"
    },
    "wires": [],
    "log": {
        "last_modified": "2019-04-23 09:05",
        "extension_builder_version": "9.10.0",
        "be_user": " (3)"
    }
}